{
  "annotations": {
    "list": [
      {
        "builtIn": 1,
        "datasource": {
          "type": "grafana",
          "uid": "-- Grafana --"
        },
        "enable": true,
        "hide": true,
        "iconColor": "rgba(0, 211, 255, 1)",
        "name": "Annotations & Alerts",
        "type": "dashboard"
      }
    ]
  },
  "editable": true,
  "fiscalYearStartMonth": 0,
  "graphTooltip": 0,
  "id": 6,
  "links": [],
  "panels": [
    {
      "datasource": {
        "type": "loki",
        "uid": "Loki"
      },
      "fieldConfig": {
        "defaults": {
          "color": {
            "mode": "palette-classic"
          },
          "custom": {
            "axisBorderShow": false,
            "axisCenteredZero": false,
            "axisColorMode": "text",
            "axisLabel": "",
            "axisPlacement": "auto",
            "fillOpacity": 93,
            "gradientMode": "none",
            "hideFrom": {
              "legend": false,
              "tooltip": false,
              "viz": false
            },
            "lineWidth": 2,
            "scaleDistribution": {
              "type": "linear"
            },
            "thresholdsStyle": {
              "mode": "off"
            }
          },
          "mappings": [],
          "thresholds": {
            "mode": "absolute",
            "steps": [
              {
                "color": "green",
                "value": null
              },
              {
                "color": "red",
                "value": 80
              }
            ]
          }
        },
        "overrides": []
      },
      "gridPos": {
        "h": 12,
        "w": 20,
        "x": 0,
        "y": 0
      },
      "id": 1,
      "interval": "10m",
      "options": {
        "barRadius": 0,
        "barWidth": 0.97,
        "fullHighlight": false,
        "groupWidth": 0.7,
        "legend": {
          "calcs": [
            "last"
          ],
          "displayMode": "table",
          "placement": "right",
          "showLegend": true,
          "sortBy": "Last",
          "sortDesc": true
        },
        "orientation": "auto",
        "showValue": "never",
        "stacking": "normal",
        "tooltip": {
          "mode": "single",
          "sort": "none"
        },
        "xTickLabelRotation": 0,
        "xTickLabelSpacing": 0
      },
      "targets": [
        {
          "datasource": {
            "type": "loki",
            "uid": "Loki"
          },
          "editorMode": "builder",
          "expr": "count_over_time({type=\"journald\"} |= `error` [$__auto])",
          "legendFormat": "{{ instance }}",
          "queryType": "range",
          "refId": "A"
        }
      ],
      "title": "Error logs per 10min",
      "transparent": true,
      "type": "barchart"
    },
    {
      "datasource": {
        "type": "loki",
        "uid": "Loki"
      },
      "gridPos": {
        "h": 10,
        "w": 21,
        "x": 0,
        "y": 12
      },
      "id": 2,
      "options": {
        "dedupStrategy": "none",
        "enableLogDetails": true,
        "prettifyLogMessage": true,
        "showCommonLabels": false,
        "showLabels": false,
        "showTime": true,
        "sortOrder": "Descending",
        "wrapLogMessage": true
      },
      "targets": [
        {
          "datasource": {
            "type": "loki",
            "uid": "Loki"
          },
          "editorMode": "builder",
          "expr": "{type=\"journald\"} |= `error` | json | line_format `{{ .host }} / {{ .SYSLOG_IDENTIFIER }} : {{.message }}`",
          "queryType": "range",
          "refId": "A"
        }
      ],
      "title": "Logs",
      "transparent": true,
      "type": "logs"
    }
  ],
  "schemaVersion": 39,
  "tags": [],
  "templating": {
    "list": []
  },
  "time": {
    "from": "now-3h",
    "to": "now"
  },
  "timepicker": {},
  "timezone": "browser",
  "title": "Error logs",
  "uid": "errorlog",
  "version": 4,
  "weekStart": ""
}